…
We will explore relational data from the recent data package  [`BIS`](https://www.rdocumentation.org/packages/BIS/versions/0.2.1){target="_blank"} that provides an interface to data provided by the Bank for International Settlements <https://www.bis.org>, allowing for programmatic retrieval of a large quantity of (central) banking data. 

### 4.2 Selected data sets

First, we are going to upload the tables that are available in the BIS package.


```r
datasets=get_datasets()
datasets
```

```
## # A tibble: 24 x 2
##    name                               url                                       
##    <chr>                              <chr>                                     
##  1 Locational banking statistics      https://www.bis.org/statistics/full_bis_l…
##  2 Consolidated banking statistics    https://www.bis.org/statistics/full_bis_c…
##  3 Debt securities statistics         https://www.bis.org/statistics/full_bis_d…
##  4 Credit to the non-financial sector https://www.bis.org/statistics/full_bis_t…
##  5 Credit-to-GDP gaps                 https://www.bis.org/statistics/full_webst…
##  6 Debt service ratios for the priva… https://www.bis.org/statistics/full_bis_d…
##  7 Global liquidity indicators        https://www.bis.org/statistics/full_bis_g…
##  8 Exchange-traded derivatives stati… https://www.bis.org/statistics/full_bis_x…
##  9 OTC derivatives outstanding        https://www.bis.org/statistics/full_bis_o…
## 10 US dollar exchange rates (monthly… https://www.bis.org/statistics/full_webst…
## # … with 14 more rows
```
…
